\relax 
\providecommand\hyper@newdestlabel[2]{}
\providecommand\HyperFirstAtBeginDocument{\AtBeginDocument}
\HyperFirstAtBeginDocument{\ifx\hyper@anchor\@undefined
\global\let\oldcontentsline\contentsline
\gdef\contentsline#1#2#3#4{\oldcontentsline{#1}{#2}{#3}}
\global\let\oldnewlabel\newlabel
\gdef\newlabel#1#2{\newlabelxx{#1}#2}
\gdef\newlabelxx#1#2#3#4#5#6{\oldnewlabel{#1}{{#2}{#3}}}
\AtEndDocument{\ifx\hyper@anchor\@undefined
\let\contentsline\oldcontentsline
\let\newlabel\oldnewlabel
\fi}
\fi}
\global\let\hyper@last\relax 
\gdef\HyperFirstAtBeginDocument#1{#1}
\providecommand\HyField@AuxAddToFields[1]{}
\providecommand\HyField@AuxAddToCoFields[2]{}
\@writefile{toc}{\contentsline {section}{\numberline {1}Linearized General Relativity and gravitational waves}{1}{section.1}}
\@writefile{toc}{\contentsline {subsection}{\numberline {1.1}Linearization of GR}{1}{subsection.1.1}}
\newlabel{eq:weak}{{1}{1}{Linearization of GR}{equation.1.1}{}}
\newlabel{eq:h_gauge}{{5}{2}{Linearization of GR}{equation.1.5}{}}
\newlabel{eq:einstein_lin1}{{8}{2}{Linearization of GR}{equation.1.8}{}}
\@writefile{toc}{\contentsline {subsection}{\numberline {1.2}Newtonian limit}{3}{subsection.1.2}}
\@writefile{toc}{\contentsline {subsection}{\numberline {1.3}Transverse-traceless gauge}{3}{subsection.1.3}}
\newlabel{eq:p_proj}{{18}{4}{Transverse-traceless gauge}{equation.1.18}{}}
\@writefile{toc}{\contentsline {section}{\numberline {2}Interaction of GW with test masses}{5}{section.2}}
\@writefile{toc}{\contentsline {subsection}{\numberline {2.1}Geodesic deviation, proper distance and proper detector frame}{5}{subsection.2.1}}
\newlabel{eq:geod}{{22}{5}{Geodesic deviation, proper distance and proper detector frame}{equation.2.22}{}}
\newlabel{eq:christ_h}{{24}{6}{Geodesic deviation, proper distance and proper detector frame}{equation.2.24}{}}
\newlabel{eq:geod_dev}{{27}{6}{Geodesic deviation, proper distance and proper detector frame}{equation.2.27}{}}
\newlabel{eq:tt_prop_dist}{{32}{7}{Geodesic deviation, proper distance and proper detector frame}{equation.2.32}{}}
\newlabel{eq:proper_riemann}{{33}{7}{Geodesic deviation, proper distance and proper detector frame}{equation.2.33}{}}
\newlabel{eq:prop_detector_acc}{{39}{8}{Geodesic deviation, proper distance and proper detector frame}{equation.2.39}{}}
\@writefile{toc}{\contentsline {section}{\numberline {3}Energy of Gravitational Radiation}{8}{section.3}}
\newlabel{eq:stressenergy_hpluscross}{{46}{9}{Energy of Gravitational Radiation}{equation.3.46}{}}
\@writefile{toc}{\contentsline {subsection}{\numberline {3.1}GW energy flux}{10}{subsection.3.1}}
\newlabel{eq:flux_htt}{{50}{10}{GW energy flux}{equation.3.50}{}}
\@writefile{toc}{\contentsline {section}{\numberline {4}Generation of GW by slowly moving sources}{10}{section.4}}
\newlabel{eq:greenf_sol}{{52}{11}{Generation of GW by slowly moving sources}{equation.4.52}{}}
\newlabel{eq:greenf_sol_tt}{{54}{11}{Generation of GW by slowly moving sources}{equation.4.54}{}}
\newlabel{eq:greenf_sol_tt_far}{{55}{11}{Generation of GW by slowly moving sources}{equation.4.55}{}}
\@writefile{toc}{\contentsline {subsection}{\numberline {4.1}Multipole expansion and quadrupole GW emission}{11}{subsection.4.1}}
\newlabel{eq:e_mom_expansion}{{56}{11}{Multipole expansion and quadrupole GW emission}{equation.4.56}{}}
\newlabel{eq:greenf_sol_tt_multipole}{{60}{12}{Multipole expansion and quadrupole GW emission}{equation.4.60}{}}
\newlabel{eq:quad_htt_Qddot}{{67}{13}{Multipole expansion and quadrupole GW emission}{equation.4.67}{}}
\@writefile{toc}{\contentsline {subsection}{\numberline {4.2}Power emitted in GW}{13}{subsection.4.2}}
\newlabel{eq:power_per_angle}{{70}{13}{Power emitted in GW}{equation.4.70}{}}
\@writefile{toc}{\contentsline {subsection}{\numberline {4.3}GW radiation from systems of point masses}{14}{subsection.4.3}}
\newlabel{eq:circular}{{78}{15}{GW radiation from systems of point masses}{equation.4.78}{}}
\newlabel{eq:hpluscross_circular_obs}{{82}{16}{GW radiation from systems of point masses}{equation.4.82}{}}
\@writefile{toc}{\contentsline {subsection}{\numberline {4.4}Gravitationally bound systems, dimensional analysis and units}{16}{subsection.4.4}}
\newlabel{eq:schw_isco}{{89}{18}{Gravitationally bound systems, dimensional analysis and units}{equation.4.89}{}}
\@writefile{toc}{\contentsline {section}{\numberline {5}GW inspiral signals from compact binaries}{18}{section.5}}
\@writefile{toc}{\contentsline {subsection}{\numberline {5.1}Energy balance and the Newtonian chirp}{19}{subsection.5.1}}
\newlabel{eq:fgw_time_chirp}{{96}{19}{Energy balance and the Newtonian chirp}{equation.5.96}{}}
\@writefile{toc}{\contentsline {subsection}{\numberline {5.2}Eccentric (elliptical) binaries and circularization}{21}{subsection.5.2}}
\@writefile{toc}{\contentsline {section}{\numberline {6}Interferometric GW detectors}{23}{section.6}}
\@writefile{toc}{\contentsline {subsection}{\numberline {6.1}Michelson interferometers and GW sensing}{23}{subsection.6.1}}
\newlabel{eq:dphix_withL}{{126}{25}{Michelson interferometers and GW sensing}{equation.6.126}{}}
\@writefile{toc}{\contentsline {subsection}{\numberline {6.2}Detector tensor and angular sensitivity}{26}{subsection.6.2}}
\@writefile{toc}{\contentsline {subsection}{\numberline {6.3}Transfer functions and noise spectrum}{27}{subsection.6.3}}
\@writefile{toc}{\contentsline {paragraph}{Burst detectability}{29}{section*.1}}
\@writefile{toc}{\contentsline {paragraph}{Continuous wave detectability}{29}{section*.2}}
\@writefile{toc}{\contentsline {subsection}{\numberline {6.4}Noise sources}{30}{subsection.6.4}}
\@writefile{toc}{\contentsline {paragraph}{Shot noise}{30}{section*.3}}
\@writefile{toc}{\contentsline {paragraph}{Radiation pressure noise}{31}{section*.4}}
\@writefile{toc}{\contentsline {paragraph}{Displacement noises}{32}{section*.5}}
\@writefile{toc}{\contentsline {section}{\numberline {7}Parameter estimation of compact binary merger signals}{33}{section.7}}
\@writefile{toc}{\contentsline {subsection}{\numberline {7.1}The GW data likelihood}{34}{subsection.7.1}}
\@writefile{toc}{\contentsline {subsection}{\numberline {7.2}Bayesian parameter estimation and priors}{36}{subsection.7.2}}
